4 Basic Operations | Data manipulation in R (online workshop)
…
planes.csv
Metadata for planes

airports.csv
Metadata for airports

We’re going to use the readr package which provides improved functions for reading datasets from files. Instead of the usual read.csv() function, we’ll use the read_csv() function from readr.

flights <- read_csv("https://raw.githubusercontent.com/SigWeber/data-manipulation-workshop/master/data/flights.csv")

Now let’s examine the dataset

flights

## # A tibble: 227,496 x 15
##    date    hour minute   dep   arr dep_delay arr_delay carrier flight origin dest  plane
##    <chr>  <dbl>  <dbl> <dbl> <dbl>     <dbl>     <dbl> <chr>    <dbl> <chr>  <chr> <chr>
##  1 01/01~    14      0  1400  1500         0       -10 AA         428 IAH    DFW   N576~
##  2 02/01~    14      1  1401  1501         1        -9 AA         428 IAH    DFW   N557~
##  3 03/01~    13     52  1352  1502        -8        -8 AA         428 IAH    DFW   N541~
##  4 04/01~    14      3  1403  1513         3         3 AA         428 IAH    DFW   N403~
##  5 05/01~    14      5  1405  1507         5        -3 AA         428 IAH    DFW   N492~
##  6 06/01~    13     59  1359  1503        -1        -7 AA         428 IAH    DFW   N262~
##  7 07/01~    13     59  1359  1509        -1        -1 AA         428 IAH    DFW   N493~
##  8 08/01~    13     55  1355  1454        -5       -16 AA         428 IAH    DFW   N477~
##  9 09/01~    14     43  1443  1554        43        44 AA         428 IAH    DFW   N476~
## 10 10/01~    14     43  1443  1553        43        43 AA         428 IAH    DFW   N504~
## # ... with 227,486 more rows, and 3 more variables: cancelled <dbl>, time <dbl>,
## #   dist <dbl>

Notice that because we used read_csv(), the data frame we received now prints nicely without having to use the head() function and does not clutter your screen.

4.3 Select

The select function is used to select columns.

Select the destination, duration and distance columns (dest, time and dist)

flights %>%
  select(dest, time, dist)

## # A tibble: 227,496 x 3
##    dest   time  dist
##    <chr> <dbl> <dbl>
##  1 DFW      40   224
##  2 DFW      45   224
##  3 DFW      48   224
##  4 DFW      39   224
##  5 DFW      44   224
##  6 DFW      45   224
##  7 DFW      43   224
##  8 DFW      40   224
##  9 DFW      41   224
## 10 DFW      45   224
## # ... with 227,486 more rows
…
Add the arrival delay (arr_delay) and departure delay (dep_delay) columns as well.

flights %>%
  select(dest, time, dist, arr_delay, dep_delay)

## # A tibble: 227,496 x 5
##    dest   time  dist arr_delay dep_delay
##    <chr> <dbl> <dbl>     <dbl>     <dbl>
##  1 DFW      40   224       -10         0
##  2 DFW      45   224        -9         1
##  3 DFW      48   224        -8        -8
##  4 DFW      39   224         3         3
##  5 DFW      44   224        -3         5
##  6 DFW      45   224        -7        -1
##  7 DFW      43   224        -1        -1
##  8 DFW      40   224       -16        -5
##  9 DFW      41   224        44        43
## 10 DFW      45   224        43        43
## # ... with 227,486 more rows

Other ways to do the same

flights %>%
  select(dest, time, dist, ends_with("delay"))

## # A tibble: 227,496 x 5
##    dest   time  dist dep_delay arr_delay
##    <chr> <dbl> <dbl>     <dbl>     <dbl>
##  1 DFW      40   224         0       -10
##  2 DFW      45   224         1        -9
##  3 DFW      48   224        -8        -8
##  4 DFW      39   224         3         3
##  5 DFW      44   224         5        -3
##  6 DFW      45   224        -1        -7
##  7 DFW      43   224        -1        -1
##  8 DFW      40   224        -5       -16
##  9 DFW      41   224        43        44
## 10 DFW      45   224        43        43
## # ... with 227,486 more rows

and …

flights %>%
  select(dest, time, dist, contains("delay"))

## # A tibble: 227,496 x 5
##    dest   time  dist dep_delay arr_delay
##    <chr> <dbl> <dbl>     <dbl>     <dbl>
##  1 DFW      40   224         0       -10
##  2 DFW      45   224         1        -9
##  3 DFW      48   224        -8        -8
##  4 DFW      39   224         3         3
##  5 DFW      44   224         5        -3
##  6 DFW      45   224        -1        -7
##  7 DFW      43   224        -1        -1
##  8 DFW      40   224        -5       -16
##  9 DFW      41   224        43        44
## 10 DFW      45   224        43        43
## # ... with 227,486 more rows

Select all columns from date to arr

flights %>%
  select(date:arr)

## # A tibble: 227,496 x 5
##    date              hour minute   dep   arr
##    <chr>            <dbl>  <dbl> <dbl> <dbl>
##  1 01/01/2011 12:00    14      0  1400  1500
##  2 02/01/2011 12:00    14      1  1401  1501
##  3 03/01/2011 12:00    13     52  1352  1502
##  4 04/01/2011 12:00    14      3  1403  1513
##  5 05/01/2011 12:00    14      5  1405  1507
##  6 06/01/2011 12:00    13     59  1359  1503
##  7 07/01/2011 12:00    13     59  1359  1509
##  8 08/01/2011 12:00    13     55  1355  1454
##  9 09/01/2011 12:00    14     43  1443  1554
## 10 10/01/2011 12:00    14     43  1443  1553
## # ... with 227,486 more rows

Select all except plane column using the minus sign

flights %>%
  select(-plane)

## # A tibble: 227,496 x 14
##    date          hour minute   dep   arr dep_delay arr_delay carrier flight origin dest 
##    <chr>        <dbl>  <dbl> <dbl> <dbl>     <dbl>     <dbl> <chr>    <dbl> <chr>  <chr>
##  1 01/01/2011 ~    14      0  1400  1500         0       -10 AA         428 IAH    DFW  
##  2 02/01/2011 ~    14      1  1401  1501         1        -9 AA         428 IAH    DFW  
##  3 03/01/2011 ~    13     52  1352  1502        -8        -8 AA         428 IAH    DFW  
##  4 04/01/2011 ~    14      3  1403  1513         3         3 AA         428 IAH    DFW  
##  5 05/01/2011 ~    14      5  1405  1507         5        -3 AA         428 IAH    DFW  
##  6 06/01/2011 ~    13     59  1359  1503        -1        -7 AA         428 IAH    DFW  
##  7 07/01/2011 ~    13     59  1359  1509        -1        -1 AA         428 IAH    DFW  
##  8 08/01/2011 ~    13     55  1355  1454        -5       -16 AA         428 IAH    DFW  
##  9 09/01/2011 ~    14     43  1443  1554        43        44 AA         428 IAH    DFW  
## 10 10/01/2011 ~    14     43  1443  1553        43        43 AA         428 IAH    DFW  
## # ... with 227,486 more rows, and 3 more variables: cancelled <dbl>, time <dbl>,
## #   dist <dbl>

4.4 Filter

The filter() function returns rows with matching conditions. We can find all flights to Boston (BOS) like this:

flights %>%
  filter(dest == "BOS")

## # A tibble: 1,752 x 15
##    date    hour minute   dep   arr dep_delay arr_delay carrier flight origin dest  plane
##    <chr>  <dbl>  <dbl> <dbl> <dbl>     <dbl>     <dbl> <chr>    <dbl> <chr>  <chr> <chr>
##  1 31/01~     7     35   735  1220         0         4 CO         282 IAH    BOS   N792~
##  2 31/01~    10     47  1047  1526        -3        -5 CO         382 IAH    BOS   N362~
##  3 31/01~    13      5  1305  1746         0        -3 CO         482 IAH    BOS   N785~
##  4 31/01~    19      1  1901  2332         6        -1 CO         582 IAH    BOS   N196~
##  5 31/01~    15     50  1550  2012         0       -25 CO         682 IAH    BOS   N785~
##  6 30/01~    10     46  1046  1518        -4        -8 CO         382 IAH    BOS   N762~
##  7 30/01~    13     19  1319  1811        14        22 CO         482 IAH    BOS   N775~
##  8 30/01~    19      9  1909    23        14        50 CO         582 IAH    BOS   N166~
##  9 30/01~    15     53  1553  2030         3        -7 CO         682 IAH    BOS   N262~
## 10 29/01~     7     40   740  1227         5        16 CO         282 IAH    BOS   N352~
## # ... with 1,742 more rows, and 3 more variables: cancelled <dbl>, time <dbl>,
## #   dist <dbl>

Let’s build on the previous exercise and find all flights to Boston (BOS) and select only the dest, time, dist columns:

new_fancy_data <- flights %>%
  select(dest, time, dist) %>%
  filter(dest == "BOS")

Now let’s do the filter first and then select the columns

flights %>%
  filter(dest == "BOS") %>%
  select(dest, time, dist) 

## # A tibble: 1,752 x 3
##    dest   time  dist
##    <chr> <dbl> <dbl>
##  1 BOS     195  1597
##  2 BOS     188  1597
##  3 BOS     190  1597
##  4 BOS     188  1597
##  5 BOS     180  1597
##  6 BOS     190  1597
##  7 BOS     185  1597
##  8 BOS     198  1597
##  9 BOS     194  1597
## 10 BOS     203  1597
## # ... with 1,742 more rows
…
%in%
check element in a vector
x %in% c(1, 3, 5, 7)
x %in% c(2, 4, 6, 8)
TRUE
FALSE

4.5 Arrange

The arrange() function is used to sort the rows based on one or more columns

flights %>%
  arrange(dest) %>% select(date,dest)

## # A tibble: 227,496 x 2
##    date             dest 
##    <chr>            <chr>
##  1 31/01/2011 12:00 ABQ  
##  2 30/01/2011 12:00 ABQ  
##  3 29/01/2011 12:00 ABQ  
##  4 28/01/2011 12:00 ABQ  
##  5 27/01/2011 12:00 ABQ  
##  6 26/01/2011 12:00 ABQ  
##  7 25/01/2011 12:00 ABQ  
##  8 24/01/2011 12:00 ABQ  
##  9 23/01/2011 12:00 ABQ  
## 10 22/01/2011 12:00 ABQ  
## # ... with 227,486 more rows
…
4.6.1 Exercise

Add a variable to show how much time was made up (or lost) during flight

4.7 Summarise

Let’s count the number of flights departing each day.

flights %>%
  group_by(date) %>%
  summarise(count = n()) 

## # A tibble: 365 x 2
##    date             count
##    <chr>            <int>
##  1 01/01/2011 12:00   552
##  2 01/02/2011 12:00   577
##  3 01/03/2011 12:00   591
##  4 01/04/2011 12:00   684
##  5 01/05/2011 12:00   619
##  6 01/06/2011 12:00   591
##  7 01/07/2011 12:00   699
##  8 01/08/2011 12:00   699
##  9 01/09/2011 12:00   670
## 10 01/10/2011 12:00   490
## # ... with 355 more rows
…
Of course, often times we’d want to save the summary in a variable for further analysis.

Let’s find the average departure delay for each destination

delays <- flights %>%
    group_by(dest) %>%
    summarise(average_delay = mean(dep_delay, na.rm=T),
              count = n())

delays

## # A tibble: 116 x 3
##    dest  average_delay count
##    <chr>         <dbl> <int>
##  1 ABQ            8.48  2812
##  2 AEX            6.38   724
##  3 AGS           10        1
##  4 AMA            6.70  1297
##  5 ANC           25.0    125
##  6 ASE           16.0    125
##  7 ATL           10.3   7886
##  8 AUS            8.42  5022
##  9 AVL            8.90   350
## 10 BFL            5.06   504
## # ... with 106 more rows
…
How many different destinations can you fly to from Houston?

Which destinations have the highest average delays?

4.8 Unite

The unite function is useful for combining multiple columns together. In the example below, we join the carrier and flight to create a unique flight_id column.

flights %>%
  unite(sigrid, carrier, flight, dest, 
        sep = "-", remove = FALSE) %>%
  select(date, carrier, flight, sigrid)

## # A tibble: 227,496 x 4
##    date             carrier flight sigrid    
##    <chr>            <chr>    <dbl> <chr>     
##  1 01/01/2011 12:00 AA         428 AA-428-DFW
##  2 02/01/2011 12:00 AA         428 AA-428-DFW
##  3 03/01/2011 12:00 AA         428 AA-428-DFW
##  4 04/01/2011 12:00 AA         428 AA-428-DFW
##  5 05/01/2011 12:00 AA         428 AA-428-DFW
##  6 06/01/2011 12:00 AA         428 AA-428-DFW
##  7 07/01/2011 12:00 AA         428 AA-428-DFW
##  8 08/01/2011 12:00 AA         428 AA-428-DFW
##  9 09/01/2011 12:00 AA         428 AA-428-DFW
## 10 10/01/2011 12:00 AA         428 AA-428-DFW
## # ... with 227,486 more rows

4.9 Separate

The separate function works the other way around by splitting a single column into multiple columns. Let’s split the date column into separate date and time columns.

flights %>%
  separate(date, c("date", "time"), sep = " ")

## # A tibble: 227,496 x 16
##    date   time   hour minute   dep   arr dep_delay arr_delay carrier flight origin dest 
##    <chr>  <chr> <dbl>  <dbl> <dbl> <dbl>     <dbl>     <dbl> <chr>    <dbl> <chr>  <chr>
##  1 01/01~ 12:00    14      0  1400  1500         0       -10 AA         428 IAH    DFW  
##  2 02/01~ 12:00    14      1  1401  1501         1        -9 AA         428 IAH    DFW  
##  3 03/01~ 12:00    13     52  1352  1502        -8        -8 AA         428 IAH    DFW  
##  4 04/01~ 12:00    14      3  1403  1513         3         3 AA         428 IAH    DFW  
##  5 05/01~ 12:00    14      5  1405  1507         5        -3 AA         428 IAH    DFW  
##  6 06/01~ 12:00    13     59  1359  1503        -1        -7 AA         428 IAH    DFW  
##  7 07/01~ 12:00    13     59  1359  1509        -1        -1 AA         428 IAH    DFW  
##  8 08/01~ 12:00    13     55  1355  1454        -5       -16 AA         428 IAH    DFW  
##  9 09/01~ 12:00    14     43  1443  1554        43        44 AA         428 IAH    DFW  
## 10 10/01~ 12:00    14     43  1443  1553        43        43 AA         428 IAH    DFW  
## # ... with 227,486 more rows, and 4 more variables: plane <chr>, cancelled <dbl>,
## #   dist <dbl>, speed <dbl>
…
